Identifier, DepartureAirport, ArrivalAirport, Aircraft Model, Price, Time in Hours
FL123, JFK, LAX, Boeing 747-8F, 350, 6
FL456, LAX, ORD, Gulfstream G650, 280, 4
FL789, ORD, ATL, Boeing 747-8F, 200, 2
FL101, DCA, SFO, Gulfstream G650, 400, 5.5
FL202, SFO, MIA, Boeing 747-8F, 500, 6.5
FL303, BOS, SEA, Airbus A320, 380, 5
FL404, SEA, DFW, Boeing 747-8F, 360, 4.5
FL505, DFW, JFK, Airbus A320, 330, 3.5
FL606, ATL, BOS, Airbus A320, 330, 3.5